AACC 6.70
AAIT 29.08
AAME 3.86
AAON 33.47
AAPL 445.15
AAWW 45.31
ABAX 43.65
AAXJ 59.19
ABCB 16.39
ABCD 1.32
ABCO 50.38
ABFS 17.67
ABIO 2.66
ABTL 4.63
ABMD 21.98
ACAD 14.19
ACAS 13.82
ACAT 47.03
ACET 11.86
ACCL 8.55
ACFC 5.17
ACFN 8.83
ACGL 52.28
ACHC 32.90
ACHN 7.58
ACIW 45.55
ACLS 1.59
ACOR 32.67
ACNB 16.75
ACPW 4.31
ACRX 7.86
ACST 2.56
ACTS 3.00
ACTG 23.53
ACUR 2.37
ACWX 43.99
ACWI 52.92
ACXM 21.46
ADAT 1.13
ADBE 42.43
ADEP 3.98
ADES 35.37
ADHD 7.25
ADNC 14.77
ADI 45.37
ADRA 27.84
ADRD 22.72
ADRU 22.20
ADSK 36.08
ADTN 22.28
ADVS 31.61
ADUS 16.26
AEGN 22.89
ADRE 38.26
ADP 69.85
AEHR 1.40
AEGR 60.09
AEIS 18.09
AEPI 83.53
AERL 4.37
AETI 6.06
AEY 2.27
AFAM 19.41
AFCE 33.45
AFCB 17.86
AFFY 1.39
AFFX 3.67
AFH 7.31
AFSI 32.50
AGII 42.64
AGIIL 25.68
AEZS 2.02
AGNCP 26.69
AGNC 27.72
AHGP 64.60
AGYS 11.30
AHPI 2.57
AINV 8.58
AIMC 28.74
AIQ 12.82
AIRM 37.57
AIRT 10.15
AIXG 16.09
AFOP 19.91
ALCS 9.31
ALGN 36.70
ALGT 93.33
ALKS 32.84
ALIM 4.44
ALLB 13.81
ALLT 12.15
AGEN 4.07
ALNY 28.98
AKRX 14.59
ALOG 79.97
ALOT 10.40
ALCO 45.61
ALSK 1.83
AKAM 46.04
ALVR 2.56
ALXA 4.59
ALXN 99.17
AMAP 11.47
AMAG 22.25
AMAT 14.50
AMBC 24.75
ALTR 32.94
AMBA 15.49
AMBCW 13.19
AMBI 7.09
ALTI 2.40
AMBT 1.81
AMCC 7.63
AMCF 0.61
AMCX 65.90
AMCN 1.89
AMGN 105.91
AMED 12.14
AMIC 7.20
AMNB 21.53
AMKR 4.60
AMPE 5.06
AMOV 19.92
AMRB 8.11
AMRI 11.15
AMRN 6.78
AMRS 2.81
AMSC 2.68
AMOT 6.83
AMSF 33.10
AMSG 35.96
AMWD 35.97
AMSWA 8.28
AMZN 261.74
ANAC 5.50
ANAD 2.05
ANAT 98.70
ANCB 19.00
ANCI 1.90
ANDA 9.99
ANCX 13.02
ANDAU 10.08
ANDAW 0.20
ANEN 23.78
ANGI 23.46
ANGO 10.71
ANLY 3.88
ANIK 14.18
ANSS 73.85
ANTP 1.24
ANTH 0.60
AOSL 7.42
APAGF 11.64
APEI 38.69
APOG 27.23
APFC 27.67
APOL 20.99
APPY 1.30
ANDE 53.40
APSA 16.19
APRI 2.58
AQU 9.87
AQUUU 10.06
APWC 4.04
AQUUW 0.24
ARAY 5.19
ARCC 17.90
ARCP 16.54
ARCI 2.04
ARDNA 105.15
AREX 26.35
ARCW 5.00
ARIA 19.57
ARII 33.29
ARLP 76.14
ARKR 21.55
ARMH 45.10
ARNA 8.30
AROW 24.87
ARQL 2.73
ARRS 15.54
ARTC 33.70
ARTNA 22.61
ARTW 7.55
ARTX 1.16
ARUN 13.30
ARRY 5.85
ARWR 2.18
ASBC 15.29
ASBI 9.85
ASCA 26.41
ASBB 16.36
ASBCW 1.55
ASCMA 71.94
ASDR 51.66
ASFI 8.83
ASEI 59.63
ASIA 11.50
ASMI 33.83
ASML 81.30
ASNA 19.88
ASRV 3.00
ASPS 91.67
ASTC 0.84
ASTI 0.88
ASTM 0.55
ASTE 34.57
ASTX 5.36
ASUR 5.91
ASRVP 26.70
ASYS 4.70
ATAI 4.55
ATEA 2.40
ATAX 6.97
ATHN 85.82
ATEC 1.95
ATLC 3.90
ATLO 20.36
ATMI 23.36
ATML 7.38
ATNY 2.71
ATNI 50.49
ATHX 1.74
ATOS 5.13
ATRI 214.12
ATRC 9.28
ATRM 0.65
ATRO 34.95
ATSG 5.94
ATTU 5.70
ATX 14.02
ATVI 15.61
AUBN 21.84
AUDC 4.03
AVAV 20.42
AUXL 15.18
AVEO 2.71
AVGO 34.10
AVHI 12.79
AVNR 3.41
ATRS 4.11
AVID 6.81
AVNW 2.66
AWAY 30.36
AXAS 2.45
AWRE 5.12
AXFN 24.70
AXDX 8.67
BABY 14.14
AXJS 59.98
BAGR 7.25
BAGL 14.02
BAMM 3.11
AXTI 2.85
BANCL 25.99
BANC 13.20
BANF 43.02
BANR 32.18
BANFP 27.27
AZPN 30.18
BBBY 68.72
BASI 1.57
BBCN 12.91
BBEP 19.34
BBGI 7.38
BBNK 15.11
BBRG 18.40
BBOX 26.13
BBRY 14.48
BBSI 58.45
BCBP 10.36
BCOM 7.41
BCOR 17.99
BCPC 46.39
BCOV 7.38
BCRX 1.59
BDBD 10.79
BCSB 16.55
BDE 8.88
BDGE 21.01
BDSI 4.47
BDMS 17.68
BEBE 5.32
BEAT 2.76
BECN 40.62
BELFA 14.10
BEAV 62.76
BERK 7.79
BELFB 15.57
BFIN 8.08
BGCP 5.72
BFLY nan
BGFV 20.61
BGSC 10.01
BGSCU 10.12
BGSCW 0.29
BGMD 1.72
BIB 99.02
BICK 23.66
BIDU 96.45
BIIB 235.24
BIOD 3.71
BIOL 4.58
BIOF 4.37
BIOS 13.48
BIRT 6.65
BIS 36.21
BJRI 37.03
BKEP 8.60
BKCC 10.12
BKMU 5.61
BKEPP 9.20
BKOR 4.40
BKYF 25.97
BKSC 12.82
BLDP 1.39
BLDR 6.82
BLKB 29.22
BLIN 1.14
BLMN 22.31
BLMT 13.50
BLRX 1.63
BMRC 39.82
BMC 45.55
BMRN 64.39
BMTC 23.50
BNCL 8.80
BNCN 10.75
BNSO 1.47
BOBE 46.02
BOCH 4.95
BODY 12.14
BOKF 64.98
BOFI 41.64
BOLT 17.10
BONA 4.75
BONT 21.53
BOOM 16.20
BOSC 3.23
BOTA 3.74
BOTJ 7.75
BPFH 10.15
BPFHP 25.50
BPHX 4.15
BPOP 29.17
BPAX 1.24
BPOPM 23.68
BPFHW 4.00
BPOPN 24.34
BSFT 27.48
BUR 2.45
BSRR 13.46
BSQR 2.97
BWINA 24.74
BVSN 9.15
BWEN 4.37
BREW 7.60
BRKS 10.36
BSDM 1.24
BWINB 24.25
BRCM 36.59
BWLD 94.53
CA 27.40
BRKL 8.60
BYFC 0.80
CAAS 5.21
BTUI 2.35
BSET 13.50
BRLI 30.75
BUSE 4.44
CACB 5.99
CAC 37.28
CACC 111.01
CACG 9.53
BRCD 5.45
BSPM 0.79
BV 7.20
BSTC 15.79
BRID 7.17
BRKR 17.11
CACGW 0.49
CACGU 10.15
CACH 3.81
CADX 6.91
BVA 5.99
CAKE 40.18
CADC 0.33
CALI 3.11
CALD 5.30
CALL 15.52
CALM 44.65
CAFI 3.43
CAMT 2.03
CAMP 12.55
CARB 10.22
CAR 31.71
CART 2.65
CARV 4.70
CARZ 35.15
CASM 1.87
CASS 45.20
CASY 61.90
CATY 20.37
CATM 28.75
CAVM 31.85
CBAK 0.83
CBAN 6.28
CBF 17.99
CBEY 8.81
CBLI 1.66
CBMX 3.22
CBIN 16.71
CBMXW 0.50
CASH 26.98
CBNJ 9.50
CBNK 17.50
CBOE 40.52
CBPO 26.52
CBRL 86.97
CBRX 0.62
CBST 55.49
CBSH 43.48
CCBG 11.40
CCCL 2.17
CCIX 18.38
CCIH 4.64
CCMP 35.61
CCOI 28.19
CCNE 16.57
CCRN 5.25
CCUR 7.10
CCXI 13.92
CDNS 14.69
CDTI 2.10
CDXS 2.38
CDZI 5.87
CECE 12.10
CEDU 5.78
CECO 3.08
CELG 122.58
CELGZ 7.57
CEMI 4.50
CENT 7.77
CENX 9.86
CEMP 7.13
CENTA 7.36
CERE 2.21
CERS 5.16
CETV 3.68
CERN 96.09
CEVA 16.20
CFBK 1.40
CFFI 47.72
CFNB 16.30
CFNL 15.19
CG 30.10
CFFN 11.97
CGNX 44.05
CHCI 2.75
CGO 14.46
CGEN 5.40
CHDN 82.30
CHDX 15.52
CHCO 39.95
CHEF 19.77
CHFC 26.14
CHEV 11.59
CHI 12.82
CHFN 9.99
CHLN 2.14
CHKP 49.26
CHMG 32.75
CHNR 4.19
CHOP 2.06
CHRW 58.70
CHRM 5.59
CHSCP 33.01
CHKE 13.62
CHTP 1.84
CHW 9.03
CHUY 33.37
CHXF 50.69
CHY 13.06
CHYR 1.55
CIDM 1.47
CIEN 15.51
CIFC 7.82
CHTR 112.85
CISAA 10.01
CIMT 6.39
CISAU 10.19
CINF 47.93
CISAW 0.22
CITZ 10.45
CISG 6.15
CIZN 18.87
CKSW 7.52
CLACU 10.02
CKEC 17.65
CLBH 13.14
CLCT 13.60
CLDX 12.41
CLFD 7.67
CJJD 0.61
CLMS 10.68
CLIR 8.82
CLNE 13.27
CLNT 7.68
CLRO 9.48
CLSN 1.04
CLUB 10.99
CLRX 3.22
CLVS 34.60
CLWR 3.42
CMCO 19.52
CMCSA 41.95
CMCSK 40.08
CME 64.54
CMGE 15.99
CMLS 3.71
CMRX 21.81
CMSB 8.78
CNBC 12.51
CMTL 26.50
CLMT 36.05
CNDO 9.56
CNBKA 34.20
CNET 0.61
CLWT 2.87
CNIT 2.63
CNMD 34.04
CNOB 28.75
CNQR 81.96
CNSI 29.51
CNSL 17.72
CNTF 1.06
CNTY 3.20
CNYD 4.01
COBK 13.78
COBZ 9.02
COBR 3.10
COA 5.70
COCO 2.78
COGO 1.96
COHR 57.21
COHU 11.32
COLB 21.76
COKE 61.04
COLM 59.25
CONE 21.90
COOL 0.69
CONN 47.70
CORE 57.56
CORT 1.85
COSI 2.38
COST 114.39
CPAH 1.80
COWN 2.78
CPBC 6.47
CPHD 38.09
CPHC 11.50
CPGI 1.25
CPIX 4.91
CPLP 9.02
CPLA 44.15
CPRT 36.87
CPSI 52.02
CPRX 0.88
CPSL 1.29
CPSS 7.91
CRMBU 1.40
CRMB 1.30
CRMBW 0.09
CRESW 0.05
CRDC 1.28
CRME 1.94
CRNT 4.09
CRMT 46.50
CRRB 5.50
CREG 0.97
CROX 16.72
CPWR 11.30
CRAY 17.60
CRTX 8.46
CRAI 18.43
CRUS 17.36
CPTS 30.97
CREE 59.08
CRRC 13.96
CPST 1.03
CRDS 2.24
CRWN 2.05
CRIS 3.83
CRESY 8.09
CRWS 5.98
CRZO 26.96
CRVL 49.05
CSCD 6.51
CSBK 12.15
CSCO 23.53
CRFN 4.08
CSGP 113.65
CSFL 8.71
CSII 19.24
CSIQ 8.61
CSPI 7.87
CSOD 39.13
CSRE 33.18
CSQ 10.81
CSGS 20.75
CSTE 28.40
CSTR 55.10
CTAS 44.98
CSWC 136.00
CTCH 2.85
CTCM 12.54
CTCT 14.90
CTGX 22.72
CTIB 4.71
CTHR 4.06
CTIC 1.24
CSUN 1.93
CTRN 13.39
CTBI 35.35
CTWS 28.83
CTRP 31.50
CTXS 63.43
CTSH 63.77
CU 23.57
CUBA 8.92
CUI 5.53
CUNB 14.69
CTRX 47.92
CVCO 48.39
CVCY 8.90
CUTR 9.61
CVGI 8.00
CUBI 17.25
CVLT 69.15
CVGW 31.20
CVLY 17.42
CVV 9.66
CWBC 4.69
CWCO 10.78
CWEI 43.91
CWST 4.00
CVTI 5.43
CWTR 3.73
CXDC 4.18
CYAN 5.73
CVBF 11.39
CYBE 6.39
CY 11.03
CYBX 47.73
CYCC 3.25
CXPO 2.90
CYCCP 7.65
CYMI 113.31
CYOU 29.49
CYNO 25.29
CYTR 2.36
CYTXW 0.85
CZR 14.22
CZNC 19.95
CZFC 8.50
CYTK 1.16
DAEG 1.07
DAKT 10.78
DAIO 2.06
DATE 5.48
DARA 0.73
DAVE 11.89
CYTX 2.50
DBLEP 25.91
DBLE 4.42
DCIN 5.80
DCOM 14.54
DCTH 0.41
CZWI 7.11
DECK 53.47
DELL 13.34
DENN 6.00
DEST 25.18
DCIX 5.85
DEPO 5.89
DFRG 18.79
DFZ 14.17
DGICB 19.99
DGAS 22.46
DGICA 14.80
DGII 9.93
DGIT 7.11
DGLY 6.36
DGRW 24.82
DIOD 23.29
DISCB 77.93
DISCA 79.53
DISCK 70.06
DJCO 109.35
DISH 39.33
DHIL 82.14
DLHC 0.90
DLIA 0.88
DLLR 14.77
DHRM 1.92
DLTR 50.24
DMLP 25.23
DMND 16.29
DMRC 24.90
DNBF 17.00
DNDN 3.89
DNKN 40.50
DORM 44.45
DRAD 2.40
DOVR 3.76
DRAM 4.10
DRCO 4.92
DRIV 16.99
DRRX 0.85
DRTX 7.12
DRYS 1.91
DSCI 14.01
DSCO 1.60
DSGX 10.33
DSKX 1.84
DSPG 8.15
DTLK 10.71
DTSI 20.58
DSWL 2.66
DRWI 2.44
DVAX 2.54
DTV 63.74
DWA 21.30
DWSN 37.36
DWCH 14.53
DXCM 20.30
DXLG 5.10
DVCR 4.60
DXM 19.95
DXPE 58.28
DXYN 7.50
DYAX 2.61
DYSL 0.51
EA 22.77
DYNT 2.58
EAC 24.29
EBIX 19.81
EBAY 54.64
EBMT 10.64
EBTC 16.25
EBSB 18.10
ECHO 18.24
ECOL 28.00
ECPG 34.00
ECTE 0.58
ECTY 1.89
EDAP 3.75
ECYT 14.02
EDGW 3.87
EDS 1.18
EDMC 6.53
EEFT 31.48
EDUC 3.55
EEI 12.67
EEMA 55.77
EEML 49.93
EFII 26.91
EFSC 15.70
EFUT 3.02
EGBN 24.15
EGHT 7.82
EGLE 4.64
EGOV 16.72
EGRW 55.62
EHTH 24.26
EEME 52.98
EIHI 18.58
EGAN 7.71
EGT 1.74
ELGX 13.91
ELNK 5.70
ELON 2.49
ELOS 8.69
ELSE 4.26
ELRC 17.64
EMCF 25.00
EMCB 78.92
ELTK 1.25
EMDR 48.54
EMDI 51.83
EMEY 39.55
EMCI 28.18
EMFN 26.99
EMIF 35.06
EMITF 2.27
EMKR 3.46
EML 14.75
EMMS 1.60
EMMT 17.77
EMMSP 11.95
ENDP 33.88
ENMD 1.77
ENPH 8.15
ENSG 36.63
ENOC 17.84
ENT 9.47
ENTA 20.00
ENTG 9.93
ENVI 1.71
ENG 0.56
ENTR 4.21
EONC 0.83
ENZN 3.16
EPAX 3.76
EOPN 14.79
EPAY 27.03
EQIX 214.08
EPIQ 11.91
ERIC 11.64
ERIE 80.17
ERII 3.72
ERS 4.54
EROC 8.73
ESBK 22.65
ESBF 12.31
ESEA 1.14
ESCA 6.25
ESGR 126.94
ESIO 11.25
ESLT 42.58
ESMC 1.50
ESRX 62.68
ESSA 10.69
ESSX 4.44
ESYS 5.56
ESXB 3.23
ETRM 1.04
ETFC 11.31
EUFN 21.16
EVAL 48.19
EVOL 6.58
EVRYW 1.34
EVRY 10.28
EWBC 26.04
EXA 8.28
EXAC 18.14
EXAR 11.41
EXEL 4.74
EVBS 5.25
EXAS 10.69
EXFO 4.45
EXLP 29.50
EXLS 29.06
EVEP 41.46
EXPE 59.04
EXPO 55.94
EXTR 3.46
EXPD 39.33
EXXI 25.59
EZPW 18.87
FALC 1.33
EZCH 26.55
FANG 34.32
FAST 51.91
EVAC 7.74
FARM 14.79
FARO 36.70
FB 24.31
FBNK 14.57
FBNC 14.74
FBMS 12.50
FBIZ 29.05
FBRC 23.75
FCAL 8.36
FBSS 12.22
FCBC 15.24
FBMI 13.06
FCCO 9.15
FCEL 1.52
FCCY 9.25
FCHI 45.99
FCFS 54.09
FCLF 8.05
FCNCA 196.00
FCVA 3.35
FCTY 5.99
FCZA 7.25
FDEF 22.79
FDUS 18.98
FEFN 29.54
FEIC 71.08
FEIM 9.85
FELE 33.16
FFBC 15.83
FFBCW 5.65
FCAP 19.62
FES 3.56
FFCO 18.50
FFBH 9.70
FFCH 21.04
FFEX 1.56
FFHL 1.07
FFIC 15.71
FFIV 81.56
FFIN 55.14
FFNM 4.53
FDML 9.42
FFN 0.34
FFNW 9.89
FIBK 20.80
FINL 21.22
FFKT 20.87
FFKY 3.25
FIRE 54.08
FHCO 8.94
FITB 18.25
FIVE 37.58
FISV 88.09
FITBP 157.44
FIZZ 16.09
FLEX 7.40
FLDM 17.55
FISI 19.87
FLIC 31.50
FLL 2.99
FLIR 24.15
FLML 4.66
FLOW 3.93
FLWS 6.19
FMBI 13.41
FLXS 22.65
FMER 18.22
FMNB 6.35
FMCN nan
FNBN 8.51
FNGN 42.34
FNFG 9.86
FNHC 9.50
FNLC 16.00
FMFC 15.50
FOLD 3.40
FNSR 12.57
FONE 28.20
FORD 2.00
FONR 6.74
FORM 5.41
FORTY 20.82
FORR 35.50
FRAN 29.55
FRBK 3.05
FOSL 104.30
FRED 15.25
FREE 0.64
FRME 16.50
FRNK 18.15
FRGI 33.99
FRP 8.21
FSBW 16.91
FSC 10.72
FSCFL 25.00
FSFG 22.69
FSCI 41.17
FSLR 51.55
FSGI 4.85
FSTR 45.06
FSBK 6.45
FSRV 32.21
FSYS 15.89
FTR 4.40
FTNT 18.31
FTSL 50.04
FULL 7.97
FULT 11.57
FUBC 6.61
FUNC 7.74
FUND 7.20
FWLT 22.74
FTEK 3.86
FURX 39.36
FWM 21.15
FXCB 17.05
FXEN 4.26
FWRD 38.81
GABC 21.98
GAI 9.60
GAIA 4.10
GAGA 3.76
GAIN 7.37
GALE 2.56
GALT 4.40
GALTU 9.52
GAME 3.59
GARS 15.40
GASS 9.70
GBCI 19.73
GBDC 17.34
GAINP 26.47
GCBC 19.99
GCOM 12.89
GCVRZ 1.72
GBNK 10.80
GALTW 1.50
GENE 3.10
GENC 7.01
GENT 8.50
GERN 1.12
GEOS 87.91
GEVO 1.82
GEVA 40.88
GFNCL 4.25
GFNCP 102.75
GBLI 23.34
GFED 9.88
GFNCZ 0.15
GGAL 5.62
GFN 4.25
GHDX 37.00
GIFI 20.36
GIGM 1.00
GILT 5.34
GILD 55.81
GIGA 1.52
GIVN 14.47
GKNT 14.00
GK 47.67
GLAD 8.61
GLBS 2.45
GLBZ 11.95
GLCB 75.53
GLCH 0.71
GLDD 8.24
GLDC 3.64
GLDI 16.65
GLADP 25.41
GLPW 16.29
GLRE 23.98
GLUU 2.59
GLUXR 0.66
GMAN 12.67
GIII 41.60
GLNG 35.41
GMETP 8.10
GMCR 71.90
GMLP 34.10
GNMA 49.62
GNMK 14.77
GNTX 23.75
GNVC 0.72
GOOD 20.46
GOODN 26.12
GOLD 73.98
GOODP 27.30
GOOG 873.32
GPIC 8.21
GOODO 25.90
GPOR 48.43
GRFS 26.93
GPRE 16.00
GNCMA 9.05
GRID 32.90
GRIF 29.45
GROW 2.82
GRPN 7.21
GSBC 26.97
GSIG 8.06
GSIT 5.63
GPRC 1.52
GSJK 20.29
GRMN 35.12
GSM 12.43
GSOL 6.35
GSVC 8.25
GT 14.55
GTIV 9.85
GTLS 93.35
GTIM 2.99
GRVY 1.06
GTPPP 48.59
GTWN 14.00
GTXI 5.89
GULF 18.02
GUID 9.23
GTAT 4.38
GURE 1.10
GWPH 8.89
HA 5.89
GYRO 73.11
HAFC 16.40
HALL 9.14
HALO 7.42
HAIN 68.44
HAST 2.96
HAUP 0.79
HAS 47.16
HAWK 23.69
HAYN 48.04
HBAN 7.54
HBHC 28.25
HBCP 17.94
HBK 13.24
HBANP 1,367.50
HBIO 5.13
HBMD 7.20
HBNC 19.74
HBOS 14.15
HBNK 15.10
HCAP 15.24
HCBK 8.52
HCCI 14.50
HCIIP 34.50
HCKT 5.25
HCOM 24.33
HCSG 22.53
HDNG 12.86
HDSN 3.80
HELE 38.92
HEES 21.82
HEOP 5.95
HERO 7.17
HFBL 17.57
HFBC 10.98
HFFC 13.10
HGSH 8.20
HIBB 56.47
HIFS 65.69
HIHO 1.90
HFWA 14.06
HILL 2.00
HIIQ 9.65
HIMX 7.00
HITK 33.70
HLSS 23.61
HLIT 6.10
HMIN 28.50
HITT 54.79
HMNY 4.15
HKTV 7.05
HMNF 7.36
HMPR 1.30
HMST 23.31
HMSY 25.36
HMTV 14.53
HNRG 7.43
HNH 15.52
HNSN 1.63
HOGS 12.94
HOLL 1.41
HOLX 20.16
HOLI 11.50
HOMB 42.50
HOFT 16.92
HOTR 2.42
HOME 11.88
HOTRW 0.35
HOTT 13.96
HOVNP 17.66
HPCCP 30.00
HPAC 10.25
HPJ 1.05
HPOL 1.79
HPTX 21.15
HRZN 14.45
HSIC 95.11
HSKA 7.73
HSOL 1.57
HSNI 56.76
HSON 2.42
HSTM 24.49
HTBK 6.92
HTBI 16.40
HSII 15.01
HTHT 15.81
HTCO 10.53
HTCH 5.83
HTLD 14.28
HTLF 27.59
HTWO 10.18
HUBG 37.55
HURN 43.44
HURC 28.15
HTWR 92.33
HWAY 14.12
HWBK 11.75
HWCC 14.10
HYGS 10.21
HWKN 39.47
HYLS 51.80
IACI 50.73
HZNP 2.40
IART 36.40
IBB 180.74
IBCPO 30.90
IBCA 6.04
IBKC 50.48
IBCP 6.42
IBOC 21.46
IBTX 28.27
IBKR 15.58
ICAD 5.92
ICCC 3.65
ICGE 11.27
ICFI 29.96
ICLN 9.02
ICLR 33.41
ICON 30.20
ICUI 70.68
IDIX 4.31
IDCC 45.18
IDSA 3.25
IDRA 0.68
IDSY 4.95
IDXX 83.81
IDTI 8.07
IEP 76.25
IFAS 34.03
IESC 5.75
ICPT 34.36
IFEU 33.26
IFNA 53.34
IFGL 34.05
IFON 0.45
IGLD 3.00
IFSM 38.96
IGOI 2.30
IGOV 98.42
IGTE 14.23
III 1.92
IIIN 18.65
IIJI 16.51
IILG 21.58
IIN 3.93
IIVI 16.52
IKNX 15.92
IKAN 1.36
ILMN 70.31
IMCB 13.80
IMI 8.20
IMGN 17.89
IMKTA 22.07
IMMU 3.36
IMMR 14.49
IMMY 9.60
IMOS 18.18
INAP 7.89
IMRS 2.61
INCY 23.00
INDB 33.15
INBK 25.97
INFA 34.45
INDY 24.56
INFI 24.30
INFN 9.04
INOC 3.94
ININ 48.59
INOD 3.17
INPH 2.35
INSY 10.64
INSM 12.93
INTC 23.92
INTG 22.23
INTT 3.35
INTL 16.96
INTU 57.90
INWK 11.03
INVE 0.83
INTX 9.91
INXB 7.84
INXBW 0.59
INXBU 8.34
IOSP 41.00
IPAR 29.52
IPAS 1.71
IPCC 59.45
IPCM 47.73
IPCI 1.84
IPDN 5.21
IPGP 56.04
IPHS 51.14
IPXL 18.80
IQNT 5.81
IRBT 32.32
IRDM 7.21
IRDMZ 0.90
IRG 18.65
IROQ 15.34
IRIX 6.16
IRWD 12.83
ISBC 20.28
ISCA 34.56
ISHG 92.37
ISIG 2.08
ISIL 8.07
ISIS 20.98
ISLE 7.63
ISM 24.55
ISNS 5.10
ISRL 96.90
ISRG 501.53
ISSC 7.89
ISSI 10.36
ITMN 9.58
ITIC 71.33
ITRI 41.63
ITRN 16.85
IVAN 1.32
IXYS 11.68
JACK 36.68
JACQ 10.01
JACQU 10.15
JACQW 0.25
IVAC 4.67
JADE 1.93
JAKK 10.22
JASO 8.03
JAXB 0.50
JBHT 74.78
JAZZ 63.75
JBLU 6.38
JCS 9.91
JCTCF 9.58
JCOM 40.49
JBSS 19.60
JSM 25.07
JOSB 45.36
JOUT 24.32
JMBA 3.02
JOBS 60.67
JIVE 16.67
JXSB 19.10
KBALB 9.56
KALU 64.01
KBIO 5.85
KCAP 11.11
JST 5.20
JJSF 77.61
KCLI 37.55
JDSU 13.07
JKHY 46.48
KELYB 17.56
JRJC 1.54
KELYA 17.51
KEQU 13.05
JRCC 3.11
JOEZ 1.71
JVA 7.10
KERX 8.03
JFBI 5.50
KEYN 12.66
KFRC 14.63
KEYW 14.27
KFFB 8.05
KGJI 1.27
KINS 5.24
KIOR 4.68
KIPO 6.37
KIPS 1.28
KNDI 3.81
KONE 2.76
KONA 10.20
KYTH 20.81
LACO 3.61
LAMR 47.75
LAKE 3.69
KVHI 12.98
KRFT 57.01
LARK 21.43
KLAC 54.67
KIRK 14.57
KONG 6.59
LBAI 10.01
KTEC 14.37
LAWS 14.47
KRNY 10.25
LABC 16.65
KOSS 4.83
KUTV 1.21
KTCC 10.91
LBIX 4.63
KOOL 1.10
KOPN 3.56
LBTYB 76.16
LBTYA 75.56
KTOS 5.88
LAND 16.98
LBTYK 70.12
LANC 83.18
KLIC 12.00
LCNB 18.75
LAYN 21.28
LABL 30.07
LEAP 5.82
LCUT 13.15
LECO 58.82
LCAV 3.18
LEDS 1.48
LEDR 10.50
LFUS 72.63
LFVN 2.36
LGND 27.47
LHCG 22.56
LIME 0.75
LIFE 74.04
LINC 6.88
LINE 35.06
LINTA 22.97
LINTB 23.01
LION 12.89
LIOX 2.94
LIVE 3.08
LIWA 5.69
LKQ 24.78
LLEN 3.73
LLNW 2.05
LMAT 6.21
LLTC 37.05
LKFN 27.73
LMCB 125.87
LMCA 125.55
LMIA 19.10
LMNR 19.45
LMOS 14.91
LNCE 26.43
LNBB 9.27
LOAN 1.65
LNCO 37.92
LMNX 19.11
LOCM 1.65
LOGM 24.55
LGCY 27.76
LOJN 3.27
LOOK 0.58
LONG 14.45
LOPE 33.00
LORL 61.67
LNDC 13.88
LPLA 36.64
LPNT 48.11
LPHI 3.52
LPDX 6.19
LOGI 6.56
LPSB 10.10
LPTH 0.85
LPSN 9.32
LPTN 4.99
LQDT 37.77
LRAD 0.94
LRCX 46.61
LSBK 11.60
LSBI 21.50
LSCC 4.96
LSTR 54.64
LSI 7.22
LTBR 1.68
LTRE 3.15
LTON 3.55
LUFK 88.30
LTRX 1.62
LTXC 5.52
LULU 78.89
LVNTA 80.97
LUNA 1.28
LVNTB 79.50
LYTS 8.15
LXRX 2.19
MACK 5.20
MAG 13.78
MAMS 4.50
MAKO 11.22
MAGS 3.92
MANT 27.49
MANH 72.68
MARK 3.06
MARPS 16.69
MASC 9.87
MASI 21.71
LWAY 17.20
MATR 3.40
MAT 45.63
MATW 38.21
MAYS 22.09
MBFI 25.82
MBLX 1.73
MBTF 3.80
MBND 3.20
MBWM 16.69
MCBI 9.96
MCBC 5.44
MCBK 17.69
MCEP 24.68
MCHP 36.32
MBRG 18.83
MCGC 5.13
MCHX 5.94
MCOX 2.72
MCRL 10.11
MBVT 28.82
MCRI 15.08
MCRS 42.71
MDCA 17.50
MDAS 17.47
MDCI 7.27
MDCO 32.99
MDIV 22.06
MDLZ 30.95
MDRX 13.69
MDSO 67.29
MDVN 48.86
MAXY 2.37
MDXG 6.96
MEAD 3.43
MEIL 3.45
MEAS 43.58
MEILZ 0.31
MEILW 0.50
MELA 1.10
MEIP 8.22
MELI 117.12
MEMP 19.44
MEMS 4.06
MENT 18.46
MEOH 43.94
MERC 6.40
METR 19.13
MERU 3.54
MFI 7.70
MFLR 17.85
MFNC 8.90
MFLX 15.39
MFRM 36.13
MFRI 7.38
MFSF 15.36
MGAM 25.05
MGCD 6.56
MGI 19.70
MGIC 5.19
MGLN 53.33
MGPI 4.63
MGEE 55.70
MGRC 32.54
MGYR 5.25
MHGC 6.78
MICTW 1.02
MICT 4.90
MIDD 164.97
MIND 15.96
MINI 34.78
MITK 5.12
MITL 3.40
MKTX 43.94
MLAB 52.38
MHLD 10.79
MLHR 27.74
MKTG 9.75
MLNK 2.76
MLNX 53.49
MLVF 11.85
MMLP 45.79
MMYT 12.71
MMSI 9.96
MNDO 1.86
MKTO 25.57
MKSI 27.49
MNGA 1.12
MNGL 10.75
MNGLU 10.10
MNGLW 0.30
MNRK 11.25
MNOV 3.14
MNRO 47.65
MNTA 13.39
MNTX 10.39
MNTG 3.99
MOBI 3.32
MOFG 23.53
MOCO 13.50
MOLXA 24.74
MOLX 29.56
MORN 68.61
MOSY 4.24
MNKD 6.55
MPAC 8.37
MPAA 6.30
MOVE 10.98
MPEL 23.20
MPWR 24.11
MRCC 15.14
MPET 1.09
MNST 55.91
MRCY 9.36
MRGE 3.12
MRLN 23.37
MRVL 11.34
MSBF 7.50
MSEX 19.76
MSCC 21.64
MPB 10.03
MRTN 23.53
MSFT 34.27
MSG 59.44
MSLI 0.60
MSON 5.45
MSPD 3.19
MSFG 13.74
MTEX 9.89
MSTR 92.41
MTGE 22.15
MTRX 16.25
MTSC 59.03
MTSL 1.89
MTSI 13.89
MTSN 1.92
MU 11.59
MVISW 0.04
MVIS 2.90
MWIV 117.99
MXIM 30.08
MXWL 6.76
MYGN 31.43
MYL 31.17
MYRG 20.16
NAII 4.60
NAFC 22.86
NANO 14.43
NASB 23.55
NATL 29.40
NATH 51.00
NAUH 3.69
NATR 15.52
NATI 28.59
NAVR 2.49
NAVG 59.05
NBBC 5.95
NBCB 24.16
NBIX 13.17
NBN 9.92
NBTF 19.73
NBTB 20.39
NCBC 6.41
NCLH 32.15
NDAQ 30.72
NCTY 3.21
NDSN 68.00
NECB 6.13
NEOG 54.72
NEO 3.60
NCIT 4.66
NEON 5.20
NEPT 2.76
NETC 15.04
NETE 5.00
NEWL 0.19
NEWP 13.39
NCMI 17.21
NEWS 11.97
NEWT 2.12
NFBK 11.61
NFLX 228.74
NFEC 0.78
NFSB 16.88
NHTB 13.01
NGPC 6.57
NICE 36.57
NICK 14.00
NIHD 8.13
NINE 1.55
NKSH 32.76
NKTR 9.27
NLST 0.62
NILE 34.86
NMRX 10.28
NNBR 9.28
NOVB 17.05
NPBC 10.00
NRIM 22.21
NPSP 14.91
NSEC 8.06
NSPH 4.26
NSIT 18.82
NSYS 3.35
NSSC 4.39
NLNK 16.10
NTAP 36.45
NTCT 23.46
NTES 62.06
NTGR 32.84
NTLS 16.33
NTIC 10.94
NTRI 8.85
NTRS 57.31
NTSC 12.74
NTK 71.39
NTWK 9.68
NUAN 19.20
NUCL 35.48
NTSP 15.96
NURO 1.91
NUTR 19.07
NUVA 22.33
NVAX 2.02
NVDQ 13.53
NVEEU 7.00
NVEC 50.90
NVGN 3.88
NVDA 14.54
NVSL 7.35
NVMI 9.10
NVTL 3.59
NWBI 12.64
NWBOW 2.25
NWBO 3.64
NWLI 194.25
NWPX 27.51
NWFL 30.62
NWS 33.25
NWSA 33.09
NXPI 29.65
NXST 28.07
NXTM 13.87
NYMT 6.91
NYNY 2.69
OBAF 18.53
OBAS 4.99
OCC 4.45
OBCI 2.45
OCFC 14.20
OCLR 1.07
OCLS 4.34
OCZ 1.38
NYMX 5.28
OFED 15.52
ODFL 42.79
OFIX 26.52
OFLX 13.18
OABC 23.10
OFS 11.97
OGXI 10.73
OIIM 3.49
OINK 0.67
OKSB 13.49
OKSBP 26.00
OLBK 12.81
OMCL 18.38
OMAB 28.45
OMER 5.30
OMEX 3.29
OMTH 6.77
ONEQ 136.19
ONNN 7.85
ONTY 1.92
ONVI 4.60
ONXX 95.23
OPHC 0.42
OPEN 67.73
OPLK 16.67
ONFC 13.06
OPOF 12.81
OPTR 14.48
OPTT 1.68
ONCY 2.62
OPXA 1.69
ORBK 11.60
ORBC 3.67
OPAY 6.41
ORCL 34.05
ORBT 3.44
ORIG 17.75
OREX 6.45
ORIT 15.50
ORLY 110.74
ORMP 9.33
ORRF 14.92
OSBCP 10.61
OSH 1.86
OSBC 5.48
OSHC 14.40
OSIS 57.85
OSIR 11.02
OSM 24.74
OSTK 25.48
OSUR 4.34
OTIV 1.18
OTTR 28.39
OSN 0.76
OVAS 11.60
OVLY 7.75
OVRL 1.13
OTEX 68.25
OXBT 4.48
OVTI 14.40
OXGN 3.27
OVBC 19.50
OXLC 17.10
OTT 2.39
OXLCP 26.14
OZRK 43.69
PACB 2.60
PAAS 12.18
PACQU 10.01
PACQ 9.80
PACR 6.24
PACQW 0.45
PACT 6.71
PAGG 30.93
PACW 28.35
PAMT 17.80
PANL 28.68
PATK 20.87
PAYX 37.86
PBCP 9.07
PBCT 13.81
PBHC 13.15
PBIB 0.89
PATR 29.34
PBMD 2.50
PATH 3.17
PBSK 15.00
PBIP 8.47
PCCC 16.55
PCLN 801.12
PCH 49.54
PCMI 7.75
PCOM 16.79
PCBK 11.50
PCAR 53.35
PCTI 7.41
PCO 2.35
PCRX 29.30
PCYO 6.70
PDFS 17.78
PDEX 1.90
PDCO 39.20
PDLI 8.37
PEBK 12.23
PEBO 20.27
PCYC 85.61
PDCE 50.04
PEGA 31.59
PEIX 4.63
PENX 11.90
PDII 4.60
PEOP 18.49
PERF 5.86
PERI 13.56
PESI 0.66
PENN 56.73
PETS 13.22
PFBI 12.42
PFBC 16.40
PETM 69.48
PERY 19.94
PFBX 12.85
PFLT 14.42
PFMT 10.50
PFPT 19.76
PFSW 4.50
PGC 15.30
PGNX 4.15
PFIN 8.75
PHII 33.53
PGRX 0.23
PGTI 8.03
PHMD 16.16
PHIIK 35.33
PKBK 7.62
PICO 21.86
PKOH 36.51
PLAB 7.42
PKT 13.63
PLCE 52.36
PLCC 0.76
PLCM 10.80
PLNR 1.78
PLMT 13.90
PLPC 70.92
PLTM 11.88
PLPM 2.61
PLBC 5.71
PLUG 0.33
PLUS 49.20
PLXS 28.74
PLXT 4.48
PMBC 6.04
PMCS 5.88
PME 10.10
PMFG 6.27
PMNA 11.62
PMTI 13.60
PNBK 1.30
PNFP 25.49
PNQI 48.37
PNNT 11.45
PMTC 24.56
PNTR 3.35
PNRA 190.19
PODD 29.64
POPE 67.00
POWI 43.94
PMD 11.40
PNRG 30.04
POOL 51.69
POWR 13.41
POZN 5.10
PPC 11.77
PPBI 12.02
PPHM 1.70
POWL 49.05
PRAN 2.39
PRAA 147.12
PRFT 12.43
PRCP 7.30
PRGO 118.92
PRGS 23.60
PRGX 5.49
PRKR 4.46
PRIM 21.38
PRLS 3.35
PRFZ 81.98
PROV 15.34
PRMW 1.58
PRPH 1.57
PRSC 24.58
PRGN 4.91
PRSS 6.46
PRTA 10.28
PRXI 2.30
PRTS 1.29
PRXL 46.08
PSCC 41.41
PSAU 22.46
PSCD 40.23
PSBH 5.60
PSCE 40.19
PSCH 41.99
PSCF 35.90
PSCM 36.10
PSCI 36.67
PSCT 35.20
PSDV 3.20
PSCU 33.46
PSEM 7.00
PSEC 10.81
PSMI 10.35
PSMT 87.00
PSTR 1.31
PSTB 5.81
PSUN 3.25
PTEN 21.76
PTEK 1.26
PTIX 1.33
PTIE 2.82
PTNR 6.15
PSTI 3.03
PTNT 3.63
PTRY 13.14
PTSX 1.01
PTSI 10.76
PTX 3.68
PULB 10.33
PVFC 3.85
PVTB 19.55
PWER 6.35
PTLA 16.10
PVTBP 25.80
PWRD 12.61
PWX 16.49
PWOD 40.78
PXLW 2.85
PZZA 64.08
PZZI 4.95
QABA 29.13
QADA 12.76
QCCO 2.97
QCLN 14.03
QCOM 64.26
QCOR 34.86
QCRH 15.23
QDEL 22.62
QGEN 18.98
QBAK 1.58
QIWI 16.17
QLTI 7.82
QADB 10.75
QLGC 9.34
QKLS 4.19
QQEW 30.58
QNST 7.63
QQQ 73.41
QQQC 15.83
QLYS 14.21
QSII 17.92
QQQX 16.22
QLTY 8.93
QTEC 28.97
QQXT 30.05
QTWW 0.63
QUIK 2.28
RADA 1.42
RAVN 31.26
RAND 2.94
RBCN 7.10
RBCAA 23.58
RBPAA 1.52
RCKB 13.16
QLIK 30.08
RAIL 17.64
RDA 11.01
RCPT 13.85
RDCM 3.12
RDHL 10.70
RCKY 15.45
RDEN 47.15
RCMT 5.66
RCII 35.11
RCON 1.90
RDI 6.09
RDNT 2.38
RECN 10.98
REDF 2.82
REMY 17.58
REGI 13.58
REXX 16.98
REXI 9.27
RFMD 5.36
RGCO 20.01
RFIL 6.48
RGDX 1.42
RENT 22.48
RELV 1.37
RGLS 7.39
RGLD 51.37
RITT 4.16
RDIB 6.50
REIS 17.30
RIGL 4.71
RIVR 21.97
RLJE 3.93
RLOC 14.47
RJET 10.44
RLOG 5.76
RGEN 8.48
REFR 3.40
REGN 250.31
RIMG 8.00
RDWR 14.89
RMBS 7.74
RMKR 0.50
RELL 11.80
RMTI 3.78
RNET 25.73
RECV 1.60
RNIN 1.01
RNST 24.44
RMCF 13.03
RNWK 7.43
ROCK 16.99
ROIAK 2.31
ROIA 2.35
RICK 8.55
ROICU 15.98
RMGN 11.20
ROICW 3.01
ROLL 47.15
ROMA 17.51
ROSE 47.89
ROCM 14.66
ROVI 24.62
ROSG 4.01
ROYL 3.12
RPRXW 14.72
RPRXZ 15.73
RPRX 16.50
RPTP 6.65
RP 19.69
ROIC 14.99
RPXC 15.38
RRST 8.30
RRD 12.84
RRGB 51.73
RSOL 4.01
ROST 65.84
RSYS 5.07
RSTI 26.47
RTEC 11.80
RTIX 4.06
RUDR 50.03
RUSHA 26.67
RUSHB 22.91
RVBD 15.00
RUTH 11.30
RVLT 3.54
RYAAY 48.18
SAAS 7.36
SAIA 47.52
SAFT 53.02
SAL 25.98
SANM 13.19
SALM 7.69
SANW 8.73
SANWZ 1.11
RUE 42.03
SASR 21.66
SAVE 29.78
RVSB 2.34
SAFM 65.72
SBCF 2.13
SBAC 78.13
SBGI 26.53
SBNY 77.69
SBLK 6.08
SBNYW 48.71
SBSI 22.60
SBRA 29.50
SBSA 4.14
SBUX 63.36
SCBT 50.25
SCHL 30.23
SBBX 6.31
SCHN 26.27
SATS 38.58
SAPE 11.70
SCOK 1.55
SCLN 4.86
SBFG 8.63
SCMP 9.02
SCOR 19.71
SCON 3.93
SCSC 31.06
SCSS 20.91
SBRAP 25.53
SCTY 48.78
SDBT 4.95
SCVL 24.46
SDIX 1.02
SEED 1.60
SEIC 30.38
SENEB 33.60
SEAC 10.94
SEV 4.49
SENEA 32.62
SFLY 47.77
SFST 11.15
SGC 11.59
SFBC 13.94
SGEN 34.95
SGI 14.49
SGMO 7.98
SGMA 4.04
SGMS 9.23
SGNT 17.75
SGOC 1.21
SGRP 1.89
SGYPU 11.77
SGYPW 2.25
SFNC 25.64
SHBI 7.54
SHEN 17.51
SHFL 16.65
SHLD 50.25
SHLM 28.80
SHIP 1.65
SGYP 5.16
SHLO 10.05
SHOO 46.97
SHOR 4.27
SHOS 49.06
SIBC 14.58
SIFI 10.65
SIEB 1.75
SIFY 1.98
SIGA 3.66
SIGI 23.84
SIGM 4.64
SILC 32.40
SIMG 6.05
SIMO 10.78
SIAL 84.59
SINA 58.15
SINO 1.48
SHPG 99.49
SIRO 69.02
SIVB 74.32
SIVBO 25.60
SKUL 5.79
SKYW 14.39
SKBI 1.23
SIRI 3.58
SLAB 41.94
SLGN 47.81
SLMAP 50.45
SLM 22.79
SLMBP 63.50
SLRC 24.23
SKYY 21.55
SLTM 2.15
SLTC 7.95
SLVO 19.05
SMBC 25.21
SLXP 60.39
SMCI 10.24
SMIT 2.92
SMED 2.94
SLP 4.16
SMMF 8.00
SMRT 12.14
SMPL 14.44
SMSI 1.29
SMT 1.41
SMTC 35.59
SMTX 2.18
SNAK 7.46
SNBC 3.37
SNCR 30.68
SNFCA 6.97
SNDK 58.01
SNHY 32.67
SNMX 1.90
SNPS 35.71
SNSS 5.56
SNTA 7.57
SNTS 22.56
SOCB 5.75
SOCL 14.60
SOFO 8.83
SODA 61.97
SOHO 4.40
SOHU 64.12
SONA 10.08
SOXX 62.74
SONS 2.40
SORL 2.60
SPAN 18.87
SPAR 5.78
SPBC 19.21
SOMH 12.03
SONC 13.05
SPCHA 1.67
SPCHB 1.80
SPIL 5.82
SPEX 6.95
SPIR 0.63
SPLK 44.82
SPLS 14.94
SPNS 5.14
SPPI 8.33
SPNC 19.05
SPPRO 25.75
SPPR 1.00
SPPRP 10.10
SPRD 18.32
SPRO 1.58
SPSC 52.03
SPRT 4.66
SPTN 17.80
SPU 2.16
SPWR 19.63
SQNM 4.03
SQI 23.86
SQQQ 26.89
SRCE 24.21
SRDX 26.28
SRCL 111.49
SREV 7.73
SRPT 37.82
SSFN 4.90
SSBI 9.20
SSH 6.00
SSNC 31.60
SSRX 16.59
SSRI 6.95
STAA 8.78
STAN 22.59
SSYS 85.10
STB 6.37
STBA 19.37
STBZ 15.40
STEC 3.55
STEI 9.81
STEL 15.83
STKL 7.50
STFC 18.07
STLD 15.38
STLY 4.26
STML 15.45
STMP 36.07
STND 18.86
STNR 51.64
STRA 56.24
STRL 10.48
STRN 5.70
STEM 1.83
STRM 6.50
STRS 15.32
STRT 37.60
STRZB 22.49
STXS 1.65
SUBK 15.68
STSA 22.90
STSI 1.43
SUMR 3.40
SUPN 6.86
SUSQ 12.16
SVBI 4.78
SVNT 0.56
SWHC 9.08
SUTR 1.96
SVVC 19.10
SWKS 22.64
SWSH 1.13
SUPX 22.05
SWIR 11.46
SYBT 24.28
SYBTP 10.80
SYKE 15.85
SVA 3.31
SURG 3.12
SYMM 5.15
SYMX 0.93
SUNS 19.22
SYMC 22.85
SYNA 41.89
STX 42.85
SYNT 63.63
SYNM 5.48
STRZA 22.76
SYUT 4.62
SYPR 3.28
SZYM 11.14
TACT 8.16
TAIT 0.96
TASR 9.55
TAST 5.95
TATT 6.35
TAX 16.49
TAYC 16.32
TAXI 15.60
TAYCO 26.99
SYNC 3.54
TAYCP 26.50
SYNL 14.17
TBAC 0.61
TAYD 8.10
TBBK 14.13
TBNK 23.25
TBOW 0.85
TCBIL 25.70
TCBIW 28.83
TCBIP 25.40
TCBK 19.74
TCPC 15.97
TCRD 15.24
TCBI 43.56
TDIV 22.38
TCCO 7.20
TECD 49.67
TEAR 10.07
TECH 66.64
TECUA 9.00
TECUB 8.78
TELK 1.30
TESO 12.99
TESS 22.62
TFCO 6.50
TFM 46.10
TFSL 11.19
THFF 30.74
TGA 7.45
THLD 5.54
THOR 31.39
THRM 18.55
THRD 24.29
THST nan
TINY 3.23
TKMR 4.71
TITN 20.40
TISA 3.17
TOWN 14.84
TORM 11.09
TQQQ 72.72
TRAK 31.06
TLAB 2.03
TOPS 1.56
TLF 7.65
TICC 9.93
TREE 19.22
TILE 17.00
TRGT 5.59
TIVO 12.91
TMNG 2.84
TIBX 21.58
THTI 1.11
TOFC 13.88
TRIP 61.69
TRIO 10.07
TRIT 1.47
TNGO 14.19
TRLG 31.76
THRX 36.24
TIGR 1.96
TRMB 27.69
TRMK 26.29
TRNS 7.05
TNAV 5.07
TGE 9.00
TRIB 17.34
TRNX 16.92
TROVU 16.75
TROV 6.89
TQNT 6.74
TROW 76.92
TROVW 4.18
TRS 32.41
TRMD 2.78
TRST 5.64
TSBK 8.01
TSC 13.43
TSRE 9.62
TSTC 0.84
TSEM 6.25
TST 1.96
TTEK 28.07
TTGT 4.34
TTMI 8.10
TSCO 111.20
TSRA 20.93
TSRX 7.95
TTPH 7.78
TSLA 97.08
TSRO 34.40
TSON 2.14
TTS 25.53
TSRI 3.07
TTWO 16.02
TWER 2.55
TTEC 22.50
TWGP 19.64
TSYS 2.32
TWMC 4.44
TSPT 3.10
TWTC 28.52
TWIN 24.77
TXCC 0.43
TTHI 3.10
TXRH 23.76
TXN 35.99
TYPE 22.64
TZYM 0.61
UBIC 8.00
UBCP 7.05
UBFO 4.35
UBNK 15.92
UACL 24.92
UBNT 19.42
UBPS 3.40
UBOH 12.00
TUES 8.68
UCBA 9.67
UCBI 11.66
UCTT 5.94
UEIC 26.68
UCFC 3.99
UEPS 7.33
UBSI 25.89
UFCS 28.15
UFPI 39.72
UG 26.50
UFPT 19.35
UHAL 170.75
UIHC 6.35
UBSH 20.21
ULBI 3.87
ULGX 0.50
ULTA 92.12
ULTI 111.36
TZOO 28.46
UMBF 52.68
ULTR 2.82
UMPQ 13.60
UNB 21.03
UNAM 13.51
UNFI 54.90
UNIS 3.82
UNTD 6.40
UNTK 2.00
UNTY 7.00
UPI 2.19
UPIP 2.11
URRE 2.67
USAK 6.42
USAP 32.41
USAT 1.74
USATP 18.75
USATZ 0.83
USBI 8.56
URBN 41.84
USCR 16.10
USMD 13.39
USLM 50.82
USEG 1.87
USMO 13.83
UTEK 35.17
USTR 33.69
UNXL 23.94
UTHR 66.35
UTMD 47.98
UVSP 18.05
VALV 0.67
VALU 9.10
VBFC 1.88
VASC 15.09
VCBI 13.55
VCLK 26.40
VCLT 89.72
UTIW 15.62
VCIT 87.36
VCSH 80.42
VDSI 8.45
VECO 39.47
UTSI 2.81
VGLT 73.02
VGIT 65.08
VELT 2.02
VIA 69.99
VIAB 68.96
VIAS 12.39
VGSH 60.90
VICL 3.50
VICR 5.54
VIDE 3.75
VIFL 5.01
VIMC 1.49
VIRC 2.03
VISN 2.30
VITC 8.02
VIVO 21.89
VLGEA 37.97
VLCCF 7.86
VMBS 51.77
VLTR 13.89
VLYWW 0.11
VMED 50.31
VNDA 8.38
VNET 9.31
VNR 29.57
VLTC 4.80
VOCS 8.55
VOLC 17.26
VOD 29.61
VONE 75.75
VNQI 57.28
VONG 77.15
VONV 74.56
VOXX 10.89
VPFG 19.28
VPRT 46.23
VPHM 27.04
VRNG 3.06
VRA 23.89
VRML 3.08
VRNM 2.21
VRNT 33.87
VRSN 47.40
VRTA 1.83
VRTB 1.61
VRTX 78.40
VRTS 224.06
VSAT 71.57
VSBN 10.69
VRNGW 1.20
VSCI 1.09
VSCP 0.59
VSEC 33.95
VSTM 9.29
VRTU 23.86
VRSK 59.34
VTNR 2.89
VTIP 49.85
VTNC 4.65
VTSS 2.34
VTWG 81.26
VTWV 74.71
VXUS 49.15
VTWO 78.04
VVTV 4.72
VVUS 14.82
VYFC 9.41
VTHR 75.68
WABC 44.44
WAFDW 4.25
WAFD 17.41
WASH 28.39
WAYN 9.95
WBB 13.42
WBCO 13.60
WBKC 18.65
WBMD 28.57
WCRX 19.96
WDC 62.30
WAVX 0.39
WEBK 17.40
WEN 6.08
WEBM 1.40
WETF 13.03
WEYS 23.76
WFBI 11.22
WFD 7.63
WHF 15.94
WFM 104.80
WHLR 6.09
WIBC 6.74
WILC 6.95
WIFI 7.19
WILN 4.16
VTUS 2.66
WINA 61.81
WIN 8.67
WLB 12.21
WLBPZ 29.25
WDFC 55.77
WLDN 2.67
WLFC 13.09
WMAR 11.84
WMGI 23.91
WOOD 48.90
WBSN 24.80
WMGIZ 3.00
WERN 24.76
WOOF 24.80
WPRT 28.94
WPCS 0.40
WRLD 89.25
WRES 2.89
WRLS 12.61
WSBC 25.09
WSBF 8.07
WIRE 34.55
WSCI 5.48
WSFS 49.76
WSFSL 26.50
WSTC 23.06
WSTL 2.09
WSTG 11.56
WPPGY 87.28
WTBA 11.41
WTFCW 16.40
WVFC 11.90
WTSL 4.50
WVVI 4.46
WWWW 21.16
WWD 38.13
WYNN 137.90
XBKS 5.08
XIDE 0.45
XLNX 39.40
WTFC 37.81
XNPT 5.78
XOMA 4.09
XONE 45.00
XOOM 18.56
XRAY 41.15
XRSC 2.01
XRTX 10.65
XTEX 21.23
XTXI 20.60
XXIA 15.11
XWES 3.87
YHOO 26.33
YNDX 27.04
YAVY 4.25
YONG 5.32
YOD 1.64
ZAZA 1.42
ZBRA 45.91
YORW 18.70
YRCW 20.20
ZEUS 25.85
XPLR 3.45
ZGNX 1.53
ZIPR 2.91
ZIONW 4.79
ZIXI 3.70
ZLTQ 5.24
ZN 1.67
ZLCS 0.59
ZOLT 12.63
ZNGA 3.39
ZUMZ 31.75
ZOOM 0.38
ZIONZ 3.49
ZAGG 5.02
ZION 27.49
Z 55.86
ZIOP 2.62
ZINC 11.35
YY 24.71
ZIGO 15.60
ZHNE 1.00
